{"GOOGLE_DISPLAY": {
    "VENUE_NAME": "ggls_disp_",
    "CAMPAIGN_NAME": "campaign",
    "DESCRIPTION": "descr",
    "PLATFORM": "Google",
    "NETWORK": "Display",
    "JIGAWATTS": ["jigawatt1"],
    "TARGET_CURRENCY": "CPC with USD",
    "AUTOMATION_ENABLED": "Enabled",
    "MONTHLY_BUDGET": "12",
    "DAILY_BUDGET": "6",
    "DESKTOP": "True",
    "TABLET": "True",
    "MOBILE": "True"
    },
    "GOOGLE_SEARCH": {
        "VENUE_NAME": "ggl_search",
        "CAMPAIGN_NAME": "campaign",
        "DESCRIPTION": "descr_",
        "PLATFORM": "Google",
        "NETWORK": "Search",
        "JIGAWATTS": ["jigawatt1"],
        "TARGET_CURRENCY": "CPC with USD",
        "AUTOMATION_ENABLED": "Enabled",
        "MONTHLY_BUDGET": "12",
        "DAILY_BUDGET": "6",
        "DESKTOP": "True",
        "TABLET": "True",
        "MOBILE": "True"
    },
    "GOOGLE_VIDEO": {
        "VENUE_NAME": "ggl_vid",
        "CAMPAIGN_NAME": "campaign",
        "DESCRIPTION": "descr_",
        "PLATFORM": "Google",
        "NETWORK": "Video",
        "TARGET_CURRENCY": "CPC with USD",
        "XID": "999",
        "MONTHLY_BUDGET": "12",
        "DAILY_BUDGET": "6"
    },
    "BING_SEARCH": {
        "VENUE_NAME": "bng_search",
        "CAMPAIGN_NAME": "campaign",
        "DESCRIPTION": "descr_",
        "NETWORK": "Search",
        "PLATFORM": "Bing",
        "JIGAWATTS": ["jigawatt1"],
        "TARGET_CURRENCY": "CPC with USD",
        "AUTOMATION_ENABLED": "Enabled",
        "MONTHLY_BUDGET": "12",
        "DAILY_BUDGET": "6",
        "DESKTOP": "True",
        "TABLET": "False",
        "MOBILE": "True"
    },
    "BRIGHTROLL_VIDEO": {
        "VENUE_NAME": "brirolvid",
        "CAMPAIGN_NAME": "campaign",
        "DESCRIPTION": "desc",
        "PLATFORM": "Brightroll",
        "NETWORK": "Video",
        "TARGET_CURRENCY": "CPC with USD",
        "XID": "999",
        "MONTHLY_BUDGET": "12",
        "DAILY_BUDGET": "6"
    },
    "FACEBOOK_SOCIAL": {
        "VENUE_NAME": "fbscl",
        "CAMPAIGN_NAME": "campaign",
        "DESCRIPTION": "descr_",
        "PLATFORM": "Facebook",
        "NETWORK": "Social",
        "TARGET_CURRENCY": "CPC with USD",
        "MONTHLY_BUDGET": "12",
        "DAILY_BUDGET": "6"
    }
}